{
  "project_info": {
    "project_number": "611934269578",
    "firebase_url": "https://restaurant-app-33dae.firebaseio.com",
    "project_id": "restaurant-app-33dae",
    "storage_bucket": "restaurant-app-33dae.appspot.com"
  },
  "client": [
    {
      "client_info": {
        "mobilesdk_app_id": "1:611934269578:android:e305c0bef220669b",
        "android_client_info": {
          "package_name": "biz.deliverydudes.vendorapp.mock"
        }
      },
      "oauth_client": [
        {
          "client_id": "611934269578-s7hia13egl3kti87mj6u90s6aupp0t8n.apps.googleusercontent.com",
          "client_type": 1,
          "android_info": {
            "package_name": "biz.deliverydudes.vendorapp.mock",
            "certificate_hash": "38db66bc00885c39d8de644fb4283bfde4a47823"
          }
        },
        {
          "client_id": "611934269578-2hhcc8odb03m8bhfmpvq3kp7kd56nnd4.apps.googleusercontent.com",
          "client_type": 3
        },
        {
          "client_id": "611934269578-2hhcc8odb03m8bhfmpvq3kp7kd56nnd4.apps.googleusercontent.com",
          "client_type": 3
        }
      ],
      "api_key": [
        {
          "current_key": "AIzaSyBhgzwGdlvHVAfAB1XrfIOr0GL5NIohZLw"
        }
      ],
      "services": {
        "analytics_service": {
          "status": 1
        },
        "appinvite_service": {
          "status": 2,
          "other_platform_oauth_client": [
            {
              "client_id": "611934269578-0ut5jtpuspr7t32n124bs4ac68503qdc.apps.googleusercontent.com",
              "client_type": 2,
              "ios_info": {
                "bundle_id": "biz.deliverydudes.vendor-app"
              }
            },
            {
              "client_id": "611934269578-2hhcc8odb03m8bhfmpvq3kp7kd56nnd4.apps.googleusercontent.com",
              "client_type": 3
            }
          ]
        },
        "ads_service": {
          "status": 2
        }
      }
    },
    {
      "client_info": {
        "mobilesdk_app_id": "1:611934269578:android:74ff43c95d6f2594",
        "android_client_info": {
          "package_name": "crashlytics.test.jj"
        }
      },
      "oauth_client": [
        {
          "client_id": "611934269578-2hhcc8odb03m8bhfmpvq3kp7kd56nnd4.apps.googleusercontent.com",
          "client_type": 3
        },
        {
          "client_id": "611934269578-2hhcc8odb03m8bhfmpvq3kp7kd56nnd4.apps.googleusercontent.com",
          "client_type": 3
        }
      ],
      "api_key": [
        {
          "current_key": "AIzaSyBhgzwGdlvHVAfAB1XrfIOr0GL5NIohZLw"
        }
      ],
      "services": {
        "analytics_service": {
          "status": 1
        },
        "appinvite_service": {
          "status": 1,
          "other_platform_oauth_client": []
        },
        "ads_service": {
          "status": 2
        }
      }
    },
    {
      "client_info": {
        "mobilesdk_app_id": "1:611934269578:android:6b1411ab68ab0c1a",
        "android_client_info": {
          "package_name": "vendorapp.deliverydudes.biz.vendorapp"
        }
      },
      "oauth_client": [
        {
          "client_id": "611934269578-4tpalfeb3cng8d1vr3tac0rnb47u14qt.apps.googleusercontent.com",
          "client_type": 1,
          "android_info": {
            "package_name": "vendorapp.deliverydudes.biz.vendorapp",
            "certificate_hash": "38db66bc00885c39d8de644fb4283bfde4a47823"
          }
        },
        {
          "client_id": "611934269578-2hhcc8odb03m8bhfmpvq3kp7kd56nnd4.apps.googleusercontent.com",
          "client_type": 3
        },
        {
          "client_id": "611934269578-2hhcc8odb03m8bhfmpvq3kp7kd56nnd4.apps.googleusercontent.com",
          "client_type": 3
        }
      ],
      "api_key": [
        {
          "current_key": "AIzaSyBhgzwGdlvHVAfAB1XrfIOr0GL5NIohZLw"
        }
      ],
      "services": {
        "analytics_service": {
          "status": 1
        },
        "appinvite_service": {
          "status": 2,
          "other_platform_oauth_client": [
            {
              "client_id": "611934269578-0ut5jtpuspr7t32n124bs4ac68503qdc.apps.googleusercontent.com",
              "client_type": 2,
              "ios_info": {
                "bundle_id": "biz.deliverydudes.vendor-app"
              }
            },
            {
              "client_id": "611934269578-2hhcc8odb03m8bhfmpvq3kp7kd56nnd4.apps.googleusercontent.com",
              "client_type": 3
            }
          ]
        },
        "ads_service": {
          "status": 2
        }
      }
    }
  ],
  "configuration_version": "1"
}
